{
  "Setups": {
    "LHCb-Certification": {
      "CheckVersion": "True",
      "Commands": {
        "LHCb": [
          "CheckWorkerNode",
          "LHCbInstallDIRAC",
          "LHCbConfigureBasics",
          "CheckCECapabilities",
          "LHCbAddCVMFSTags",
          "CheckWNCapabilities",
          "LHCbConfigureSite",
          "LHCbConfigureArchitecture",
          "LHCbConfigureCPURequirements"
        ],
        "LHCb-DI": [
          "CheckWorkerNode",
          "InstallDIRAC",
          "LHCbConfigureBasics",
          "CheckCECapabilities",
          "LHCbAddCVMFSTags",
          "CheckWNCapabilities",
          "LHCbConfigureSite",
          "LHCbConfigureArchitecture",
          "LHCbConfigureCPURequirements"
        ],
        "LHCb-MP": [
          "CheckWorkerNode",
          "LHCbInstallDIRAC",
          "LHCbConfigureBasics",
          "CheckCECapabilities",
          "LHCbAddCVMFSTags",
          "CheckWNCapabilities",
          "LHCbConfigureSite",
          "LHCbConfigureArchitecture",
          "LHCbConfigureCPURequirements"
        ],
        "LHCb-FULL": [
          "CheckWorkerNode",
          "LHCbInstallDIRAC",
          "LHCbConfigureBasics",
          "CheckCECapabilities",
          "LHCbAddCVMFSTags",
          "CheckWNCapabilities",
          "LHCbConfigureSite",
          "LHCbConfigureArchitecture",
          "LHCbConfigureCPURequirements",
          "LaunchAgent"
        ]
      },
      "Version": "VAR_DIRAC_VERSION"
    },
    "Defaults": {
      "Commands": {
        "defaultList": [
          "CheckWorkerNode",
          "LHCbInstallDIRAC",
          "LHCbConfigureBasics",
          "CheckCECapabilities",
          "LHCbAddCVMFSTags",
          "CheckWNCapabilities",
          "LHCbConfigureSite",
          "LHCbConfigureArchitecture",
          "LHCbConfigureCPURequirements"
        ],
        "Defaults": [
          "CheckWorkerNode",
          "LHCbGetPilotVersion",
          "LHCbInstallDIRAC",
          "LHCbConfigureBasics",
          "CheckCECapabilities",
          "LHCbAddCVMFSTags",
          "CheckWNCapabilities",
          "LHCbConfigureSite",
          "LHCbConfigureArchitecture",
          "LHCbConfigureCPURequirements",
          "LaunchAgent"
        ]
      },
      "ConfigurationServer": "VAR_CS",
      "GenericPilotGroup": "dirac_pilot",
      "GenericPilotDN": "VAR_USERDN"
    }
  },
  "CEs": {
    "jenkins.cern.ch": {
      "Site": "VAR_JENKINS_SITE",
      "GridCEType": "LHCb"
    },
    "jenkins-diracinstall.cern.ch": {
      "Site": "VAR_JENKINS_SITE",
      "GridCEType": "LHCb-DI"
    },
    "jenkins-mp.cern.ch": {
      "Site": "VAR_JENKINS_SITE",
      "GridCEType": "LHCb-MP"
    },
    "jenkins-full.cern.ch": {
      "Site": "VAR_JENKINS_SITE",
      "GridCEType": "LHCb-FULL"
    },
    "jenkins-mp-full.cern.ch": {
      "Site": "VAR_JENKINS_SITE",
      "GridCEType": "LHCb-FULL"
    },
    "jenkins-singularity.cern.ch": {
      "Site": "VAR_JENKINS_SITE",
      "GridCEType": "LHCb",
      "LocalCEType": "Singularity"
    },
    "jenkins-singularity-full.cern.ch": {
      "Site": "VAR_JENKINS_SITE",
      "GridCEType": "LHCb-FULL",
      "LocalCEType": "Singularity"
    },
    "jenkins-mp-pool.cern.ch": {
      "Site": "VAR_JENKINS_SITE",
      "GridCEType": "LHCb-MP",
      "VAR_JENKINS_QUEUE": {
        "LocalCEType": "Pool"
      }
    },
    "jenkins-mp-pool-full.cern.ch": {
      "Site": "VAR_JENKINS_SITE",
      "GridCEType": "LHCb-FULL",
      "VAR_JENKINS_QUEUE": {
        "LocalCEType": "Pool"
      }
    },
    "jenkins-mp-pool-sudo.cern.ch": {
      "Site": "VAR_JENKINS_SITE",
      "GridCEType": "LHCb-MP",
      "VAR_JENKINS_QUEUE": {
        "LocalCEType": "Pool/Sudo"
      }
    },
    "jenkins-mp-pool-sudo-full.cern.ch": {
      "Site": "VAR_JENKINS_SITE",
      "GridCEType": "LHCb-FULL",
      "VAR_JENKINS_QUEUE": {
        "LocalCEType": "Pool/Sudo"
      }
    },
    "jenkins-mp-pool-singularity.cern.ch": {
      "Site": "VAR_JENKINS_SITE",
      "GridCEType": "LHCb-MP",
      "VAR_JENKINS_QUEUE": {
        "LocalCEType": "Pool/Singularity"
      }
    },
    "jenkins-mp-pool-singularity-full.cern.ch": {
      "Site": "VAR_JENKINS_SITE",
      "GridCEType": "LHCb-FULL",
      "VAR_JENKINS_QUEUE": {
        "LocalCEType": "Pool/Singularity"
      }
    }
  },
  "DefaultSetup": "LHCb-Certification"
}
